%YAML 1.1
%TAG !u! tag:unity3d.com,2011:
--- !u!114 &11400000
MonoBehaviour:
  m_ObjectHideFlags: 0
  m_CorrespondingSourceObject: {fileID: 0}
  m_PrefabInstance: {fileID: 0}
  m_PrefabAsset: {fileID: 0}
  m_GameObject: {fileID: 0}
  m_Enabled: 1
  m_EditorHideFlags: 0
  m_Script: {fileID: 11500000, guid: 9f1ba6938aa047179d84efa49f5e1a7c, type: 3}
  m_Name: Gui installer
  m_EditorClassIdentifier: 
  mainCanvasPrefab: {fileID: 3141572754238935927, guid: ecd346f1e5883da43b71e3f73ba5f4bc,
    type: 3}
  userInterfaceConfig: {fileID: 11400000, guid: d4fad058f41ee454c92589af1089d79c,
    type: 2}
