%YAML 1.1
%TAG !u! tag:unity3d.com,2011:
--- !u!114 &11400000
MonoBehaviour:
  m_ObjectHideFlags: 0
  m_CorrespondingSourceObject: {fileID: 0}
  m_PrefabInstance: {fileID: 0}
  m_PrefabAsset: {fileID: 0}
  m_GameObject: {fileID: 0}
  m_Enabled: 1
  m_EditorHideFlags: 0
  m_Script: {fileID: 11500000, guid: bbb281ee3bf0b054c82ac2347e9e782c, type: 3}
  m_Name: Default Local Group
  m_EditorClassIdentifier: 
  m_GroupName: Default Local Group
  m_Data:
    m_SerializedData: []
  m_GUID: 2a9802b684b373a4d8000003a5daa908
  m_SerializeEntries:
  - m_GUID: 8157421bcd9028c4faf36e68cfe12bae
    m_Address: Assets/Prefabs/Window/TestWindow.prefab
    m_ReadOnly: 0
    m_SerializedLabels: []
  - m_GUID: cba7ec2e6d30abb41b2469c3f7393396
    m_Address: Assets/Prefabs/Window/RewardWindow.prefab
    m_ReadOnly: 0
    m_SerializedLabels: []
  - m_GUID: aef3644a454242644abc5ad86b915602
    m_Address: Assets/Prefabs/Window/MenuWindow.prefab
    m_ReadOnly: 0
    m_SerializedLabels: []
  - m_GUID: 98a3d6d522d082a459c1c03a5fa24f7d
    m_Address: Assets/Prefabs/Window/CoreHud.prefab
    m_ReadOnly: 0
    m_SerializedLabels: []
  m_ReadOnly: 0
  m_Settings: {fileID: 11400000, guid: a69252a0ba6a2c0478c8261559484743, type: 2}
  m_SchemaSet:
    m_Schemas:
    - {fileID: 11400000, guid: 091e0bf0d0f11e94a973d992c264ec8a, type: 2}
    - {fileID: 11400000, guid: ac3075ad37b59e8499176dcb948b90be, type: 2}
