%YAML 1.1
%TAG !u! tag:unity3d.com,2011:
--- !u!114 &11400000
MonoBehaviour:
  m_ObjectHideFlags: 0
  m_CorrespondingSourceObject: {fileID: 0}
  m_PrefabInstance: {fileID: 0}
  m_PrefabAsset: {fileID: 0}
  m_GameObject: {fileID: 0}
  m_Enabled: 1
  m_EditorHideFlags: 0
  m_Script: {fileID: 11500000, guid: 5cdb389d7d8b495f807d5891f9c12943, type: 3}
  m_Name: Question1 Config 1
  m_EditorClassIdentifier: 
  serializationData:
    SerializedFormat: 2
    SerializedBytes: 
    ReferencedUnityObjects: []
    SerializedBytesString: 
    Prefab: {fileID: 0}
    PrefabModificationsReferencedUnityObjects: []
    PrefabModifications: []
    SerializationNodes:
    - Name: question
      Entry: 1
      Data: "\u0418\u043C\u044F ?"
    - Name: answers
      Entry: 7
      Data: 0|System.String[], mscorlib
    - Name: 
      Entry: 12
      Data: 4
    - Name: 
      Entry: 1
      Data: "\u0410\u043B\u0435\u043A\u0441\u0435\u0439"
    - Name: 
      Entry: 1
      Data: "\u0410\u043B\u0435\u043A\u0441\u0435\u0439"
    - Name: 
      Entry: 1
      Data: "\u0410\u043B\u0435\u043A\u0441\u0435\u0439"
    - Name: 
      Entry: 1
      Data: "\u0410\u043B\u0435\u043A\u0441\u0435\u0439"
    - Name: 
      Entry: 13
      Data: 
    - Name: 
      Entry: 8
      Data: 
    - Name: mainAnswer
      Entry: 6
      Data: 
  question: "\u0418\u043C\u044F ?"
  answers:
  - "\u0410\u043B\u0435\u043A\u0441\u0435\u0439"
  - "\u0410\u043B\u0435\u043A\u0441\u0435\u0439"
  - "\u0410\u043B\u0435\u043A\u0441\u0435\u0439"
  - "\u0410\u043B\u0435\u043A\u0441\u0435\u0439"
  mainAnswer: 
