%YAML 1.1
%TAG !u! tag:unity3d.com,2011:
--- !u!1 &6968360582777961213
GameObject:
  m_ObjectHideFlags: 0
  m_CorrespondingSourceObject: {fileID: 0}
  m_PrefabInstance: {fileID: 0}
  m_PrefabAsset: {fileID: 0}
  serializedVersion: 6
  m_Component:
  - component: {fileID: 493625824954686803}
  - component: {fileID: 3163284970987424915}
  m_Layer: 0
  m_Name: Board1
  m_TagString: Untagged
  m_Icon: {fileID: 0}
  m_NavMeshLayer: 0
  m_StaticEditorFlags: 0
  m_IsActive: 1
--- !u!4 &493625824954686803
Transform:
  m_ObjectHideFlags: 0
  m_CorrespondingSourceObject: {fileID: 0}
  m_PrefabInstance: {fileID: 0}
  m_PrefabAsset: {fileID: 0}
  m_GameObject: {fileID: 6968360582777961213}
  m_LocalRotation: {x: 0, y: 0, z: 0, w: 1}
  m_LocalPosition: {x: 0, y: 0, z: -1}
  m_LocalScale: {x: 1, y: 1, z: 1}
  m_Children:
  - {fileID: 7317206437651995816}
  m_Father: {fileID: 0}
  m_RootOrder: 0
  m_LocalEulerAnglesHint: {x: 0, y: 0, z: 0}
--- !u!114 &3163284970987424915
MonoBehaviour:
  m_ObjectHideFlags: 0
  m_CorrespondingSourceObject: {fileID: 0}
  m_PrefabInstance: {fileID: 0}
  m_PrefabAsset: {fileID: 0}
  m_GameObject: {fileID: 6968360582777961213}
  m_Enabled: 1
  m_EditorHideFlags: 0
  m_Script: {fileID: 11500000, guid: 6bdf0d11ef3d4a5a92933f71461e8a15, type: 3}
  m_Name: 
  m_EditorClassIdentifier: 
  district: {fileID: 3462597685232082779}
--- !u!1001 &6745953008246109632
PrefabInstance:
  m_ObjectHideFlags: 0
  serializedVersion: 2
  m_Modification:
    m_TransformParent: {fileID: 493625824954686803}
    m_Modifications:
    - target: {fileID: 2415361007859912290, guid: a98770308a044d94b984d9545364cb11,
        type: 3}
      propertyPath: m_CastShadows
      value: 0
      objectReference: {fileID: 0}
    - target: {fileID: 4041278044744083816, guid: a98770308a044d94b984d9545364cb11,
        type: 3}
      propertyPath: m_RootOrder
      value: 0
      objectReference: {fileID: 0}
    - target: {fileID: 4041278044744083816, guid: a98770308a044d94b984d9545364cb11,
        type: 3}
      propertyPath: m_LocalPosition.x
      value: -0.77
      objectReference: {fileID: 0}
    - target: {fileID: 4041278044744083816, guid: a98770308a044d94b984d9545364cb11,
        type: 3}
      propertyPath: m_LocalPosition.y
      value: -2.3902893
      objectReference: {fileID: 0}
    - target: {fileID: 4041278044744083816, guid: a98770308a044d94b984d9545364cb11,
        type: 3}
      propertyPath: m_LocalPosition.z
      value: 1.07
      objectReference: {fileID: 0}
    - target: {fileID: 4041278044744083816, guid: a98770308a044d94b984d9545364cb11,
        type: 3}
      propertyPath: m_LocalRotation.w
      value: 1
      objectReference: {fileID: 0}
    - target: {fileID: 4041278044744083816, guid: a98770308a044d94b984d9545364cb11,
        type: 3}
      propertyPath: m_LocalRotation.x
      value: -0
      objectReference: {fileID: 0}
    - target: {fileID: 4041278044744083816, guid: a98770308a044d94b984d9545364cb11,
        type: 3}
      propertyPath: m_LocalRotation.y
      value: -0
      objectReference: {fileID: 0}
    - target: {fileID: 4041278044744083816, guid: a98770308a044d94b984d9545364cb11,
        type: 3}
      propertyPath: m_LocalRotation.z
      value: -0
      objectReference: {fileID: 0}
    - target: {fileID: 4041278044744083816, guid: a98770308a044d94b984d9545364cb11,
        type: 3}
      propertyPath: m_LocalEulerAnglesHint.x
      value: 0
      objectReference: {fileID: 0}
    - target: {fileID: 4041278044744083816, guid: a98770308a044d94b984d9545364cb11,
        type: 3}
      propertyPath: m_LocalEulerAnglesHint.y
      value: 0
      objectReference: {fileID: 0}
    - target: {fileID: 4041278044744083816, guid: a98770308a044d94b984d9545364cb11,
        type: 3}
      propertyPath: m_LocalEulerAnglesHint.z
      value: 0
      objectReference: {fileID: 0}
    - target: {fileID: 8045322399485796347, guid: a98770308a044d94b984d9545364cb11,
        type: 3}
      propertyPath: m_Name
      value: District1
      objectReference: {fileID: 0}
    m_RemovedComponents: []
  m_SourcePrefab: {fileID: 100100000, guid: a98770308a044d94b984d9545364cb11, type: 3}
--- !u!4 &7317206437651995816 stripped
Transform:
  m_CorrespondingSourceObject: {fileID: 4041278044744083816, guid: a98770308a044d94b984d9545364cb11,
    type: 3}
  m_PrefabInstance: {fileID: 6745953008246109632}
  m_PrefabAsset: {fileID: 0}
--- !u!114 &3462597685232082779 stripped
MonoBehaviour:
  m_CorrespondingSourceObject: {fileID: 7895917059503401627, guid: a98770308a044d94b984d9545364cb11,
    type: 3}
  m_PrefabInstance: {fileID: 6745953008246109632}
  m_PrefabAsset: {fileID: 0}
  m_GameObject: {fileID: 0}
  m_Enabled: 1
  m_EditorHideFlags: 0
  m_Script: {fileID: 11500000, guid: 068c833db71a46eba729b4c10e1ea957, type: 3}
  m_Name: 
  m_EditorClassIdentifier: 
