%YAML 1.1
%TAG !u! tag:unity3d.com,2011:
--- !u!114 &11400000
MonoBehaviour:
  m_ObjectHideFlags: 0
  m_CorrespondingSourceObject: {fileID: 0}
  m_PrefabInstance: {fileID: 0}
  m_PrefabAsset: {fileID: 0}
  m_GameObject: {fileID: 0}
  m_Enabled: 1
  m_EditorHideFlags: 0
  m_Script: {fileID: 11500000, guid: 5ef3db2097924ed5828bfd66b34039cc, type: 3}
  m_Name: Loading Config
  m_EditorClassIdentifier: 
  loadingStages:
  - {fileID: 11400000, guid: 0851db5c595e9f04caaaaef5753c782a, type: 2}
