%YAML 1.1
%TAG !u! tag:unity3d.com,2011:
--- !u!114 &11400000
MonoBehaviour:
  m_ObjectHideFlags: 0
  m_CorrespondingSourceObject: {fileID: 0}
  m_PrefabInstance: {fileID: 0}
  m_PrefabAsset: {fileID: 0}
  m_GameObject: {fileID: 0}
  m_Enabled: 1
  m_EditorHideFlags: 0
  m_Script: {fileID: 11500000, guid: 17ed2d73e6ee41688269be463d9d866f, type: 3}
  m_Name: Loading Installer
  m_EditorClassIdentifier: 
  loadingConfig: {fileID: 11400000, guid: 3ba5fff279e76804ab1b7c09c85870b9, type: 2}
