%YAML 1.1
%TAG !u! tag:unity3d.com,2011:
--- !u!162 &1
EditorUserSettings:
  m_ObjectHideFlags: 0
  serializedVersion: 4
  m_ConfigSettings:
    RecentlyUsedScenePath-0:
      value: 224247031146467922362312380c7d3935582b21352a29286d0a0831e7ed3528a2c22efde2343b393d4dcb3909314e1bf707064bd8020d030540e80018eb09
      flags: 0
    RecentlyUsedScenePath-1:
      value: 22424703114646730c0008622022561e02121c6a1f3c293e28692936faf4212ae7a805eae2343a731103e138440e0036fc1e0c0fb6381e041f0bbd3a14e7040603c056d014c10b05
      flags: 0
    RecentlyUsedScenePath-2:
      value: 22424703114646680e0b0227036c6a1933190e6439262f2434
      flags: 0
    RecentlyUsedScenePath-3:
      value: 224247031146467922362312380c7d3935582b21352a29286d0a0831e7ed3528a2c22efde2343b393d4dcb3909314e1bf707064bd4070f051540e80018eb09
      flags: 0
    RecentlyUsedScenePath-4:
      value: 224247031146467922362312380c7d3935582b21352a29286d0a0831e7ed3528a2c22efde2343b393d4dcb3909314e1bf707064bd20a13450400f41a08
      flags: 0
    RecentlyUsedScenePath-5:
      value: 224247031146467d010103261527603704180d24283b69032e2c1336f1af042ae7c625ecea383a303d3dcd290d320536fc0d1a45e305031f08
      flags: 0
    RecentlyUsedScenePath-6:
      value: 224247031146467d010103261527603704180d24283b69032e2c1336f1af073be7e933d6c6742a323016f6
      flags: 0
    RecentlyUsedScenePath-7:
      value: 224247031146467718000d30500f5e1e12041b2b3c2d666309662e30e7ee312badcb23e7e628133d3706fc3f052e046cd6441c05ff1f13
      flags: 0
    RecentlyUsedScenePath-8:
      value: 22424703114646680e0b0227036c731f171311242b67043f223d0e27f0e12476f7e93ffdfe
      flags: 0
    RecentlyUsedScenePath-9:
      value: 22424703114646680e0b0227036c7c1f04123f2b212d68252320092a
      flags: 0
    UnityEditor.ShaderGraph.Blackboard:
      value: 18135939215a0a5004000b0e15254b524c030a3f2964643d120d1230e9e93a3fd6e826abbd2e2d293c4ead313b08042de6030a0afa240c0d020be94c4ba75e435d8715fa32c70d15d11612dacc11fee5d3c5d1fe9ab1bf968e93e2ffcbc3e7e2f0b3ffe0e8b0be9af8ffaeffff8e85dd8390e3949c8899daa7
      flags: 0
    UnityEditor.ShaderGraph.FloatingWindowsLayout2:
      value: 181344140043005e1a220d3b1f364b524c0c5a27130c293326201334cee5322ca0bd30e8eb293a707b0fd0180b3d0a36fc0d3d04e649500d1002ee0b5dbd1d2c27c00ad113cb1e10e41f1addc80993b98d9884a69ae6d8f0d1cda9e8fbfefaf9f9dea3fdb9ade882f0f7b0e1e380cafbf2c3adc18e9cd285a2908b82ec869c8395949c9483d68a8e97ddbd90bf
      flags: 0
    UnityEditor.ShaderGraph.InspectorWindow:
      value: 18135939215a0a5004000b0e15254b524c1119263f2d6a722016393ce1eb3d36e5d339f9a5602b2e2c07a37e0901373ae01e0008f707250d171df81a53a5485d41895ac825e0100ec20313c0d91cddccd3d0c7efcca9bd88908fecb0f9cfddf1eff4e7a1b1eae482f0fcaee0e1928b86d888ed969b938797a7cf
      flags: 0
    vcSharedLogLevel:
      value: 0d5e400f0650
      flags: 0
  m_VCAutomaticAdd: 1
  m_VCDebugCom: 0
  m_VCDebugCmd: 0
  m_VCDebugOut: 0
  m_SemanticMergeMode: 2
  m_VCShowFailedCheckout: 1
  m_VCOverwriteFailedCheckoutAssets: 1
  m_VCProjectOverlayIcons: 1
  m_VCHierarchyOverlayIcons: 1
  m_VCOtherOverlayIcons: 1
  m_VCAllowAsyncUpdate: 1
